7月16日(土)
------------------------
17:00       M3計測, ★休憩？
17:10       ★休憩？
17:20       ★休憩？

次の行動予定は
------------
17:30       ★C2 S4シャード戦
------------
です


17:30       S4発生, ★C2 S4シャード戦, ターゲットノバ張替え, S4は勝負の目処がつき次第C4へ急行
17:40～46   S4ジャンプ, ★C2  S4シャード戦
17:50～56   S4ジャンプ, ★C2  S4シャード戦
18:00～06   S4ジャンプ, ★C2  S4シャード戦
18:10～16   S4ジャンプ, ★C2  S4シャード戦
18:20～26   S4ジャンプ, ★C2  S4シャード戦
18:30       M4計測





